{
  "name": "airline_seat_legroom_reduced",
  "do": "",
  "dont": "",
  "tags": ["plane", "airplane", "chair", "small"],
  "category": ["notification"],
  "type": "static",
  "hasOutlined": true,
  "date": "30/11/2020"
}
