{
  "name": "alternate_email",
  "do": "",
  "dont": "",
  "tags": ["Email", "address", "alternate", "contact"],
  "category": ["communication"],
  "type": "static",
  "hasOutlined": true,
  "date": "30/11/2020"
}
