{
  "name": "arrow_forward",
  "do": "",
  "dont": "",
  "tags": ["direction", "right", "indicator", "ahead", "onward"],
  "category": ["navigation"],
  "type": "static",
  "hasOutlined": true,
  "date": "30/11/2020"
}
