{
  "name": "arrow_drop_down_circle",
  "do": "",
  "dont": "",
  "tags": ["direction", "down", "downward", "caret", "circle"],
  "category": ["navigation"],
  "type": "static",
  "hasOutlined": true,
  "date": "30/11/2020"
}
