{
  "name": "auto_awesome_mosaic",
  "do": "",
  "dont": "",
  "tags": [
    "auto",
    "awesome",
    "edit",
    "editing",
    "filter",
    "grid",
    "image",
    "layout",
    "mosaic",
    "photographs",
    "photography",
    "photos",
    "pictures",
    "setting"
  ],
  "category": ["image"],
  "type": "static",
  "label": "None",
  "date": "03/03/2021",
  "hasOutlined": true
}
