{
  "name": "battery_charging_20",
  "do": "",
  "dont": "",
  "tags": ["charge", "mobile", "power", "cell"],
  "category": ["device"],
  "type": "static",
  "hasOutlined": true,
  "date": "30/11/2020"
}
