{
  "name": "bluetooth_searching",
  "do": "",
  "dont": "",
  "tags": [
    "symbol",
    "search",
    "bluetooth",
    "searching",
    "connection",
    "paring",
    "device"
  ],
  "category": ["device"],
  "type": "static",
  "hasOutlined": true,
  "date": "30/11/2020"
}
