{
  "name": "bug_report",
  "do": "",
  "dont": "",
  "tags": ["file", "bug", "insect", "report", "animal"],
  "category": ["action"],
  "type": "static",
  "hasOutlined": true,
  "date": "30/11/2020"
}
