{
  "name": "camera_roll",
  "do": "",
  "dont": "",
  "tags": [
    "photography",
    "photo",
    "image",
    "cam",
    "camcorder",
    "shutter",
    "album"
  ],
  "category": ["image"],
  "type": "static",
  "hasOutlined": true,
  "date": "30/11/2020"
}
