{
  "name": "category",
  "do": "",
  "dont": "",
  "tags": [
    "categories",
    "circle",
    "collection",
    "items",
    "product",
    "sort",
    "square",
    "triangle"
  ],
  "category": ["maps"],
  "type": "static",
  "hasOutlined": true,
  "date": "30/11/2020"
}
