{
  "name": "cloud_off",
  "do": "",
  "dont": "",
  "tags": [
    "cloud",
    "server",
    "storage",
    "remote",
    "off",
    "abort",
    "omit",
    "remove"
  ],
  "category": ["file"],
  "type": "static",
  "hasOutlined": true,
  "date": "30/11/2020"
}
