{
  "name": "credit_score",
  "do": "",
  "dont": "",
  "tags": [
    "bill",
    "card",
    "cart",
    "cash",
    "check",
    "coin",
    "commerce",
    "credit",
    "currency",
    "dollars",
    "finance",
    "info",
    "information",
    "loan",
    "mark",
    "money",
    "ok",
    "online",
    "pay",
    "payment",
    "score",
    "shopping",
    "tick"
  ],
  "category": ["device"],
  "type": "static",
  "label": "None",
  "date": "03/03/2021",
  "hasOutlined": true
}
