{
  "name": "directions_bike",
  "do": "",
  "dont": "",
  "tags": [
    "bicycle",
    "maps",
    "bike",
    "transportation",
    "vehicle",
    "automobile",
    "cars",
    "route",
    "public",
    "car",
    "person",
    "human",
    "direction"
  ],
  "category": ["maps"],
  "type": "static",
  "hasOutlined": true,
  "date": "30/11/2020"
}
