{
  "name": "do_not_step",
  "do": "",
  "dont": "",
  "tags": ["stop", "forbidden", "prohibited", "banned", "footstep", "walk"],
  "category": ["places"],
  "type": "static",
  "hasOutlined": true,
  "date": "30/11/2020"
}
