{
  "name": "dvr",
  "do": "",
  "dont": "",
  "tags": [
    "digital",
    "dvr",
    "computer",
    "recorder",
    "tv",
    "vidio",
    "electronic",
    "audio",
    "device"
  ],
  "category": ["device"],
  "type": "static",
  "hasOutlined": true,
  "date": "30/11/2020"
}
