{
  "name": "edit_notifications",
  "do": "",
  "dont": "",
  "tags": [
    "attribution",
    "check",
    "edit",
    "change",
    "bell",
    "new",
    "note",
    "alert",
    "update"
  ],
  "category": ["social"],
  "type": "static",
  "label": "None",
  "date": "03/03/2021",
  "hasOutlined": true
}
