{
  "name": "fast_forward",
  "do": "",
  "dont": "",
  "tags": ["music", "forward", "control", "time", "video", "Fast", "speed"],
  "category": ["av"],
  "type": "static",
  "hasOutlined": true,
  "date": "30/11/2020"
}
