{
  "name": "file_download_off",
  "do": "",
  "dont": "",
  "tags": [
    "content",
    "arrow down",
    "folder",
    "storage",
    "document",
    "on",
    "off",
    "save"
  ],
  "category": ["file"],
  "type": "static",
  "label": "None",
  "date": "03/03/2021",
  "hasOutlined": true
}
