{
  "name": "find_in_page",
  "do": "",
  "dont": "",
  "tags": [
    "search",
    "see",
    "paper",
    "find",
    "document",
    "doc",
    "magnifying glass",
    "page",
    "look"
  ],
  "category": ["action"],
  "type": "static",
  "hasOutlined": true,
  "date": "30/11/2020"
}
