{
  "name": "folder",
  "do": "",
  "dont": "",
  "tags": ["portfolio", "data", "directory", "documents", "repository"],
  "category": ["file"],
  "type": "static",
  "hasOutlined": true,
  "date": "30/11/2020"
}
