{
  "name": "forward_5",
  "do": "",
  "dont": "",
  "tags": [
    "symbol",
    "controls",
    "arrow",
    "forward",
    "arrows",
    "control",
    "video",
    "number",
    "music",
    "5",
    "Fast",
    "10",
    "digit"
  ],
  "category": ["av"],
  "type": "static",
  "hasOutlined": true,
  "date": "30/11/2020"
}
