{
  "name": "fullscreen",
  "do": "",
  "dont": "",
  "tags": ["entire", "frame", "image", "big screen"],
  "category": ["navigation"],
  "type": "static",
  "hasOutlined": true,
  "date": "30/11/2020"
}
