{
  "name": "grid_3x3",
  "do": "",
  "dont": "",
  "tags": ["3", "grid", "layout", "line", "space"],
  "category": ["device"],
  "type": "static",
  "label": "None",
  "date": "03/03/2021",
  "hasOutlined": true
}
