{
  "name": "house",
  "do": "",
  "dont": "",
  "tags": [
    "architecture",
    "building",
    "estate",
    "fmaily",
    "home",
    "homepage",
    "house",
    "place",
    "real",
    "residence",
    "residential",
    "shelter"
  ],
  "category": ["places"],
  "type": "static",
  "hasOutlined": true,
  "date": "30/11/2020"
}
