{
  "name": "hvac",
  "do": "",
  "dont": "",
  "tags": ["Heating", "Ventilation", "Air Conditioning", "fan", "ac"],
  "category": ["maps"],
  "type": "static",
  "hasOutlined": true,
  "date": "30/11/2020"
}
