{
  "name": "ice_skating",
  "do": "",
  "dont": "",
  "tags": [
    "fitness",
    "skate",
    "sports",
    "shoe",
    "winter",
    "olympics",
    "cold",
    "snow",
    "game"
  ],
  "category": ["social"],
  "type": "static",
  "label": "None",
  "date": "03/03/2021",
  "hasOutlined": true
}
