{
  "name": "language",
  "do": "",
  "dont": "",
  "tags": ["website", "globe", "world", "planet", "www", "language"],
  "category": ["action"],
  "type": "static",
  "hasOutlined": true,
  "date": "30/11/2020"
}
