{
  "name": "location_city",
  "do": "",
  "dont": "",
  "tags": ["map", "location", "navigation", "places"],
  "category": ["social"],
  "type": "static",
  "hasOutlined": true,
  "date": "30/11/2020"
}
