{
  "name": "military_tech",
  "do": "",
  "dont": "",
  "tags": [
    "army",
    "award",
    "badge",
    "honor",
    "medal",
    "merit",
    "military",
    "order",
    "privilege",
    "prize",
    "rank",
    "reward",
    "ribbon",
    "soldier",
    "star",
    "status",
    "tech",
    "trophy",
    "win",
    "winner"
  ],
  "category": ["social"],
  "type": "static",
  "hasOutlined": true,
  "date": "30/11/2020"
}
