{
  "name": "movie_filter",
  "do": "",
  "dont": "",
  "tags": ["video", "photo", "image", "camera", "film"],
  "category": ["image"],
  "type": "static",
  "hasOutlined": true,
  "date": "30/11/2020"
}
