{
  "name": "new_releases",
  "do": "",
  "dont": "",
  "tags": [
    "!",
    "New",
    "star",
    "alert",
    "release",
    "attention",
    "exclamation",
    "burst",
    "announcement",
    "releases"
  ],
  "category": ["av"],
  "type": "static",
  "hasOutlined": true,
  "date": "30/11/2020"
}
