{
  "name": "next_week",
  "do": "",
  "dont": "",
  "tags": [
    "calendar",
    "next",
    "schedule",
    "week",
    "arrow",
    "briefcase",
    "work"
  ],
  "category": ["content"],
  "type": "static",
  "hasOutlined": true,
  "date": "30/11/2020"
}
