{
  "name": "outbox",
  "do": "",
  "dont": "",
  "tags": ["box", "mail", "outbox", "send", "sent"],
  "category": ["action"],
  "type": "static",
  "label": "None",
  "date": "03/03/2021",
  "hasOutlined": true
}
