{
  "name": "park",
  "do": "",
  "dont": "",
  "tags": ["attraction", "fresh", "local", "park", "plant", "tree"],
  "category": ["maps"],
  "type": "static",
  "label": "None",
  "date": "03/03/2021",
  "hasOutlined": true
}
