{
  "name": "perm_scan_wifi",
  "do": "",
  "dont": "",
  "tags": [
    "wifi",
    "alert",
    "service",
    "scan",
    "information",
    "internet",
    "announcement",
    "info",
    "network"
  ],
  "category": ["action"],
  "type": "static",
  "hasOutlined": true,
  "date": "30/11/2020"
}
