{
  "name": "photo_camera_back",
  "do": "",
  "dont": "",
  "tags": [
    "back",
    "camera",
    "image",
    "landscape",
    "mountain",
    "mountains",
    "photo",
    "photography",
    "picture",
    "rear"
  ],
  "category": ["image"],
  "type": "static",
  "label": "None",
  "date": "03/03/2021",
  "hasOutlined": true
}
