{
  "name": "picture_as_pdf",
  "do": "",
  "dont": "",
  "tags": ["photo", "image", "camera", "file", "format"],
  "category": ["image"],
  "type": "static",
  "hasOutlined": true,
  "date": "30/11/2020"
}
