{
  "name": "play_circle_filled",
  "do": "",
  "dont": "",
  "tags": ["Play", "controls", "music", "arrow", "control", "video"],
  "category": ["av"],
  "type": "static",
  "hasOutlined": true,
  "date": "30/11/2020"
}
