{
  "name": "preview",
  "do": "",
  "dont": "",
  "tags": ["sample", "sneak", "advance showing", "sneak peek", "premiere"],
  "category": ["action"],
  "type": "static",
  "hasOutlined": true,
  "date": "30/11/2020"
}
