{
  "name": "price_change",
  "do": "",
  "dont": "",
  "tags": [
    "arrow",
    "bill",
    "card",
    "cart",
    "cash",
    "coin",
    "commerce",
    "credit",
    "currency",
    "dollars",
    "down",
    "money",
    "online",
    "pay",
    "payment",
    "shopping",
    "symbol",
    "up"
  ],
  "category": ["device"],
  "type": "static",
  "label": "None",
  "date": "03/03/2021",
  "hasOutlined": true
}
