{
  "name": "print",
  "do": "",
  "dont": "",
  "tags": ["print", "paper", "draft", "ink", "printer", "send"],
  "category": ["action"],
  "type": "static",
  "hasOutlined": true,
  "date": "30/11/2020"
}
