{
  "name": "psychology",
  "do": "",
  "dont": "",
  "tags": [
    "behavior",
    "body",
    "brain",
    "cognitive",
    "function",
    "gear",
    "head",
    "human",
    "intellectual",
    "mental",
    "mind",
    "people",
    "person",
    "preferences",
    "psychiatric",
    "psychology",
    "science",
    "settings",
    "social",
    "therapy",
    "thinking",
    "thoughts"
  ],
  "category": ["social"],
  "type": "static",
  "hasOutlined": true,
  "date": "30/11/2020"
}
