{
  "name": "railway_alert",
  "do": "",
  "dont": "",
  "tags": [
    "!",
    "automobile",
    "bike",
    "car",
    "cars",
    "delay",
    "direction",
    "error",
    "exclamation",
    "maps",
    "public",
    "rail",
    "scooter",
    "subway",
    "train",
    "transportation",
    "vehicle",
    "vespa"
  ],
  "category": ["maps"],
  "type": "static",
  "label": "None",
  "date": "03/03/2021",
  "hasOutlined": true
}
