{
  "name": "remember_me",
  "do": "",
  "dont": "",
  "tags": [
    "Android",
    "OS",
    "avatar",
    "device",
    "hardware",
    "human",
    "iOS",
    "identity",
    "mobile",
    "people",
    "person",
    "phone",
    "profile",
    "remember",
    "tablet",
    "user"
  ],
  "category": ["device"],
  "type": "static",
  "label": "None",
  "date": "03/03/2021",
  "hasOutlined": true
}
