{
  "name": "select_all",
  "do": "",
  "dont": "",
  "tags": ["all", "square", "select", "selection", "tool"],
  "category": ["content"],
  "type": "static",
  "hasOutlined": true,
  "date": "30/11/2020"
}
