{
  "name": "settings_phone",
  "do": "",
  "dont": "",
  "tags": ["settings", "phone", "mobile", "cell", "device"],
  "category": ["action"],
  "type": "static",
  "hasOutlined": true,
  "date": "30/11/2020"
}
