{
  "name": "settings_cell",
  "do": "",
  "dont": "",
  "tags": [
    "settings",
    "tablet",
    "OS",
    "phone",
    "mobile",
    "iOS",
    "device",
    "Android",
    "hardware"
  ],
  "category": ["action"],
  "type": "static",
  "hasOutlined": true,
  "date": "30/11/2020"
}
