{
  "name": "smoke_free",
  "do": "",
  "dont": "",
  "tags": [
    "no smoking",
    "forbidden",
    "banned",
    "cigarette",
    "tobacco",
    "cigar"
  ],
  "category": ["places"],
  "type": "static",
  "hasOutlined": true,
  "date": "30/11/2020"
}
