{
  "name": "sms_failed",
  "do": "",
  "dont": "",
  "tags": ["message", "chat", "text", "communication", "error"],
  "category": ["notification"],
  "type": "static",
  "hasOutlined": true,
  "date": "30/11/2020"
}
