{
  "name": "sports_mma",
  "do": "",
  "dont": "",
  "tags": [
    "arts",
    "athlete",
    "athletic",
    "boxing",
    "combat",
    "entertainment",
    "exercise",
    "fighting",
    "game",
    "glove",
    "hobby",
    "martial",
    "mixed",
    "mma",
    "social",
    "sports"
  ],
  "category": ["social"],
  "type": "static",
  "hasOutlined": true,
  "date": "30/11/2020"
}
