{
  "name": "star_half",
  "do": "",
  "dont": "",
  "tags": [
    "review",
    "rating",
    "valuation",
    "appraisal",
    "rank",
    "fifty percent"
  ],
  "category": ["toggle"],
  "type": "static",
  "hasOutlined": true,
  "date": "30/11/2020"
}
