{
  "name": "subdirectory_arrow_right",
  "do": "",
  "dont": "",
  "tags": ["subdirectory", "down", "below", "right", "arrow"],
  "category": ["navigation"],
  "type": "static",
  "hasOutlined": true,
  "date": "30/11/2020"
}
