{
  "name": "swap_calls",
  "do": "",
  "dont": "",
  "tags": [
    "call",
    "Swap",
    "arrow",
    "calls",
    "arrows",
    "mobile",
    "share",
    "device",
    "direction"
  ],
  "category": ["communication"],
  "type": "static",
  "hasOutlined": true,
  "date": "30/11/2020"
}
