{
  "name": "timeline",
  "do": "",
  "dont": "",
  "tags": [
    "trending",
    "data",
    "line",
    "timeline",
    "history",
    "movement",
    "tracking",
    "point",
    "points",
    "zigzag"
  ],
  "category": ["action"],
  "type": "static",
  "hasOutlined": true,
  "date": "30/11/2020"
}
