{
  "name": "view_carousel",
  "do": "",
  "dont": "",
  "tags": ["images", "view", "cards", "format", "banner", "carousel"],
  "category": ["action"],
  "type": "static",
  "hasOutlined": true,
  "date": "30/11/2020"
}
