{
  "name": "visibility",
  "do": "",
  "dont": "",
  "tags": ["eye", "see", "view", "reveal", "show", "visability", "on"],
  "category": ["action"],
  "type": "static",
  "hasOutlined": true,
  "date": "30/11/2020"
}
