{
  "name": "volunteer_activism",
  "do": "",
  "dont": "",
  "tags": [
    "donation",
    "fingers",
    "gesture",
    "giving",
    "hand",
    "hands",
    "heart",
    "love",
    "sharing",
    "volunteer"
  ],
  "category": ["maps"],
  "type": "static",
  "label": "None",
  "date": "03/03/2021",
  "hasOutlined": true
}
