{
  "name": "water",
  "do": "",
  "dont": "",
  "tags": ["aqua", "beach", "ocean", "river", "water", "waves", "weather"],
  "category": ["device"],
  "type": "static",
  "label": "None",
  "date": "03/03/2021",
  "hasOutlined": true
}
