{
  "name": "work_off",
  "do": "",
  "dont": "",
  "tags": [
    "briefcase",
    "disabled",
    "enabled",
    "job",
    "off",
    "on",
    "slash",
    "suit",
    "suitcase",
    "work"
  ],
  "category": ["action"],
  "type": "static",
  "hasOutlined": true,
  "date": "30/11/2020"
}
