{
  "name": "master",
  "do": "<ul><li>Use it to designate a main or principal volume, container, repository, etc</li></ul>",
  "dont": "<ul><li>Don't use it for admin icon </li></ul>",
  "tags": ["eos", "main", "principal", "git", "kubernetes"],
  "category": "development",
  "type": "static",
  "date": "30/11/2020",
  "hasOutlined": true,
  "dateOutlined": "3/16/2021"
}
