{
  "name": "organization",
  "do": "<ul><li>To represent organizations.</li><li>Organizations are made of groups or teams, not individuals.</li></ul>",
  "dont": "",
  "tags": [
    "eos",
    "id",
    "group",
    "company",
    "firm",
    "corporation",
    "institution",
    "establishment",
    "conglomerate"
  ],
  "category": "services",
  "type": "static",
  "date": "30/11/2020"
}
