{
  "name": "packages",
  "do": "<ul><li>To represent a list of packages.</li></ul>",
  "dont": "",
  "tags": [
    "eos",
    "module",
    "extension",
    "upgrade",
    "install",
    "bundle",
    "collection",
    "pack",
    "parcel",
    "box",
    "wrap"
  ],
  "category": "development",
  "type": "static",
  "date": "30/11/2020"
}
