{
  "name": "secret",
  "do": "<ul><li>Use it in processes where privacy is fully preserved. </li></ul>",
  "dont": "<ul><li>Don't use it for user role.</li></ul>",
  "tags": [
    "eos",
    "privacy",
    "confidential",
    "classified",
    "anonymous",
    "incognito",
    "private"
  ],
  "category": "roles",
  "type": "static",
  "date": "30/11/2020"
}
